…
coefficient specification curve

Rather than plotting model fit, you can also plot curves for associations of interest and determine how inclusion of other variables or analytic decisions affects the association

mpg ~ wt

Use the same method with a different association of interest ### extract coefficients and p-values

# extract parameter estimate (step-by-step output)
MuMIn::get.models(models.sca, subset = TRUE) %>%
  tibble() %>%
  rename("model" = ".")

## # A tibble: 1,024 x 1
##    model       
##    <named list>
##  1 <lm>        
##  2 <lm>        
##  3 <lm>        
##  4 <lm>        
##  5 <lm>        
##  6 <lm>        
##  7 <lm>        
##  8 <lm>        
##  9 <lm>        
## 10 <lm>        
## # … with 1,014 more rows

MuMIn::get.models(models.sca, subset = TRUE) %>%
  tibble() %>%
  rename("model" = ".") %>%
  mutate(tidied = purrr::map(model, broom::tidy),
         model_num = row_number()) %>%
  select(model_num, tidied) %>%
  unnest()

## # A tibble: 6,144 x 6
##    model_num term        estimate std.error statistic    p.value
##        <int> <chr>          <dbl>     <dbl>     <dbl>      <dbl>
##  1         1 (Intercept)   9.62      6.96        1.38 0.178     
##  2         1 am            2.94      1.41        2.08 0.0467    
##  3         1 qsec          1.23      0.289       4.25 0.000216  
##  4         1 wt           -3.92      0.711      -5.51 0.00000695
##  5         2 (Intercept)  17.4       9.32        1.87 0.0721    
##  6         2 am            2.93      1.40        2.09 0.0458    
##  7         2 hp           -0.0176    0.0142     -1.25 0.223     
##  8         2 qsec          0.811     0.439       1.85 0.0757    
##  9         2 wt           -3.24      0.890      -3.64 0.00114   
## 10         3 (Intercept)  12.9       7.47        1.73 0.0958    
## # … with 6,134 more rows

# extract parameter estimate
(model_params = MuMIn::get.models(models.sca, subset = TRUE) %>%
  tibble() %>%
  rename("model" = ".") %>%
  mutate(tidied = purrr::map(model, broom::tidy),
         model_num = row_number()) %>%
  select(model_num, tidied) %>%
  unnest() %>%
  select(model_num, term, estimate) %>%
  spread(term, estimate)) %>%
  select(-starts_with("sd"))

## # A tibble: 1,024 x 12
##    model_num `(Intercept)`    am `as.factor(vs)1`   carb    cyl     disp
##        <int>         <dbl> <dbl>            <dbl>  <dbl>  <dbl>    <dbl>
##  1         1          9.62  2.94               NA NA     NA     NA      
##  2         2         17.4   2.93               NA NA     NA     NA      
##  3         3         12.9   3.51               NA -0.489 NA     NA      
##  4         4         14.4   3.47               NA NA     NA      0.0112 
##  5         5         38.8  NA                  NA NA     -0.942 NA      
##  6         6          6.44  3.31               NA NA     NA      0.00769
##  7         7         39.6  NA                  NA -0.486 -1.29  NA      
##  8         8          9.92  2.96               NA -0.602 NA     NA      
##  9         9         17.7   3.32               NA -0.336 NA     NA      
## 10        10         14.9   2.47               NA NA     -0.354 NA      
## # … with 1,014 more rows, and 5 more variables: drat <dbl>, gear <dbl>,
## #   hp <dbl>, qsec <dbl>, wt <dbl>

# extract p-values for the intercept term
(model_ps = MuMIn::get.models(models.sca, subset = TRUE) %>%
  tibble() %>%
  rename("model" = ".") %>%
  mutate(tidied = purrr::map(model, broom::tidy),
         model_num = row_number()) %>%
  select(model_num, tidied) %>%
  unnest() %>%
  filter(term == "wt") %>%
  ungroup() %>%
  select(model_num, estimate, std.error, p.value))

## # A tibble: 512 x 4
##    model_num estimate std.error    p.value
##        <int>    <dbl>     <dbl>      <dbl>
##  1         1    -3.92     0.711 0.00000695
##  2         2    -3.24     0.890 0.00114   
##  3         3    -3.43     0.820 0.000269  
##  4         4    -4.08     1.19  0.00208   
##  5         5    -3.17     0.741 0.000199  
##  6         6    -4.59     1.17  0.000529  
##  7         7    -3.16     0.742 0.000211  
##  8         8    -3.11     0.905 0.00199   
##  9         9    -3.08     0.925 0.00263   
## 10        10    -3.64     0.910 0.000436  
## # … with 502 more rows
…
# extract p-values for the intercept term
(model_ps = MuMIn::get.models(models.sca, subset = TRUE) %>%
  tibble() %>%
  rename("model" = ".") %>%
  mutate(tidied = purrr::map(model, broom::tidy),
         model_num = row_number()) %>%
  select(model_num, tidied) %>%
  unnest() %>%
  bind_cols(., model_conf) %>%
  filter(term == "wt") %>%
  ungroup() %>%
  select(model_num, estimate, std.error, p.value, conf.low, conf.high))

## # A tibble: 512 x 6
##    model_num estimate std.error    p.value conf.low conf.high
##        <int>    <dbl>     <dbl>      <dbl>    <dbl>     <dbl>
##  1         1    -3.92     0.711 0.00000695    -5.37     -2.46
##  2         2    -3.24     0.890 0.00114       -5.06     -1.41
##  3         3    -3.43     0.820 0.000269      -5.12     -1.75
##  4         4    -4.08     1.19  0.00208       -6.54     -1.63
##  5         5    -3.17     0.741 0.000199      -4.68     -1.65
##  6         6    -4.59     1.17  0.000529      -6.98     -2.19
##  7         7    -3.16     0.742 0.000211      -4.68     -1.64
##  8         8    -3.11     0.905 0.00199       -4.97     -1.25
##  9         9    -3.08     0.925 0.00263       -4.98     -1.17
## 10        10    -3.64     0.910 0.000436      -5.51     -1.78
## # … with 502 more rows
…
